#<Question:0x00007f77edc6c0e8 @id=12, @text="Rubyのプログラムを実行するときに使用する語句はどれでしょう ？", 
@answers=[#<Answer:0x00007f77edc6cbd8 @id=45, @question_id=12, @number="st", @text="0", @point=0, @is_bounus=0>, 
#<Answer:0x00007f77edc6c868 @id=46, @question_id=12, @number="rb", @text="0", @point=0, @is_bounus=0>, 
#<Answer:0x00007f77edc6c4f8 @id=47, @question_id=12, @number="start", @text="0", @point=0, @is_bounus=0>, 
#<Answer:0x00007f77edc6c188 @id=48, @question_id=12, @number="ruby", @text="5", @point=0, @is_bounus=0>]>
?：Quetionデータのデータの持ち方

?：出力結果
[vagrant@localhost game]$ ruby load_execute.rb
/home/vagrant/.rbenv/versions/2.5.0/lib/ruby/gems/2.5.0/gems/rdbi-1.1.0/
lib/rdbi/types.rb:178: warning: constant ::Fixnum is deprecated
問題です
Rubyのプログラムを実行するときに使用する語句はどれでしょう？
選択肢: 1
st
bounus? 0
point: 0
選択肢: 2
rb
bounus? 0
point: 0
選択肢: 3
start
bounus? 0
point: 0
選択肢: 4
ruby
bounus? 0
point: 5

src【DB読み込み用】
  1 require 'rdbi'
  2 require 'rdbi-driver-sqlite3'
  3 require './user'
  4 #require './dice'
  5 #require './user_frame'
  6 #require './map'
  7 #require './event_dice'
  8 #require './rock_paper_scissors'
  9 #require './event'
 10 #require './lab_rail_events'
 11
 12
 15     @dbh = RDBI.connect( :SQLite3, :database => db_file_name )
 16   end
 19     load_events
 20     load_questions
 21 #    load_answers
 22   end
 23
 24   private
 25   def  load_events
 26     $events = {}
 27     @dbh.execute("select * from events").each do|row|
 30       $events[place] = event
 31     end
 32   end
 33   def load_questions
 34     $questions = []
 35     @dbh.execute("select * from questions").each do|row|
 36       id, text = row
 37       question = Question.new( id, text, fetch_answers_by(id))
 38       $questions.push(question)
 39     end
 40   end
 41   def fetch_answers_by(question_id)
 42     answers = []
 44     results.each do | row |
 45       id, question_id, text, point, number, is_bounus = row
 47       answers.push(answer)
 48     end
 49     return answers
 50   end
 
 

 51 =begin
 52   def load_answers
 53     $answers = []
 54     @dbh.execute("select * from answers").each do|row|
 55       id, question_id, number, text, point, is_bounus = row
 57       $answers.push(answer)
 58     end
 59   end
 60 =end
 61
 62 end
 63
 64
 65
 66
 67 class Question
 68   def initialize( id, text, answers )
 69     @id = id
 70     @text = text
 71     @answers = answers
 72   end
 73   attr_accessor :id, :text, :answers
 74 end
 75
 76
 77 class Answer
 78   def initialize( id, question_id, text, point, number, is_bounus )
 79     @id = id
 80     @question_id = question_id
 81     @text = text
 82     @point = point
 83     @number = number
 84     @is_bounus = is_bounus
 85   end
 86   attr_accessor :id, :question_id, :number, :text, :point, :is_bounus
 87 end
 88
 89 class Event
 90   def initialize( id, events, contents, squere, point, rest, place )
 91     @id = id
 92     @events = events
 93     @contents = contents
 94     @squere = squere
 95     @point = point
 96     @rest = rest
 97     @place = place
 98   end
 99   attr_accessor :id, :events, :contents, :squere, :point, :rest, :place
100 end
101
























102 if __FILE__ == $0
103   load_execute = LoadExecute.new ("db/labo_rail.db")
104   #question = Question.new("")
105   #answer = Answer.new(0,0,"",0,0)
106   #event = Event.new("","",0,0,0,0)
107   load_execute.run
108   #print "$events="
109   #p $events
110   #print "$questions="
111   #p $questions
112
113   puts "問題です"
114   q = $questions[11]
115   puts q.text
116   q.answers.each do |a|
117     puts "選択肢: #{a.number}"
118     puts a.text
119     puts "bounus? #{a.is_bounus}"
120     puts "point: #{a.point}"
121
122   end
123
124
125 end



